[
  {
    "fullPhrase": "Kad tave devynios!"
  },
  {
    "fullPhrase": "Kad tu prasmegtum!"
  },
  {
    "fullPhrase": "Kad tu nesulauktum!"
  },
  {
    "fullPhrase": "Kad tu paspringtum!"
  },
  {
    "fullPhrase": "Po paraliais!"
  },
  {
    "fullPhrase": "Rupūs miltai!"
  },
  {
    "fullPhrase": "Po šimts pypkių!"
  },
  {
    "fullPhrase": "Po šimts kalakutų!"
  },
  {
    "fullPhrase": "Rūta žalioji!"
  },
  {
    "fullPhrase": "Rupūžėle!"
  },
  {
    "fullPhrase": "Snargliau, tu!"
  },
  {
    "fullPhrase": "Avigalvi, tu!"
  },
  {
    "fullPhrase": "Ko čia ožius rodai!"
  },
  {
    "fullPhrase": "Kad tave žaltys!"
  },
  {
    "fullPhrase": "Kad tave kurmis!"
  },
  {
    "fullPhrase": "Kad tave sliekas prarytų ir į gabaliukus padalytų!"
  },
  {
    "fullPhrase": "Kad tau grybai ausis užkištų!"
  },
  {
    "fullPhrase": "Kad tave varnos sulestų!"
  },
  {
    "fullPhrase": "Kad tave šunys!"
  },
  {
    "fullPhrase": "Kad tave kelmai!"
  },
  {
    "fullPhrase": "Eik tu po galais!"
  },
  {
    "fullPhrase": "Eik tu balų degint! Eik tu šunims šėko pjauti!"
  },
  {
    "fullPhrase": "Kad tave bala!"
  },
  {
    "fullPhrase": "Kad tau akys ant kaktos iššoktų!"
  },
  {
    "fullPhrase": "Kad tau kas ant nuospaudos užmintų!"
  },
  {
    "fullPhrase": "Kad tau niežėtų ir pasikasyt negalėtum!"
  },
  {
    "fullPhrase": "Kad tau liežuvis nudžiūtų!"
  },
  {
    "fullPhrase": "Kad tu surūgtum!"
  },
  {
    "fullPhrase": "Kad tu ant ežio atsisėstum!"
  },
  {
    "fullPhrase": "Kad tau ragai išdygtų!"
  },
  {
    "fullPhrase": "Papūsk šuniui į uodegą!"
  },
  {
    "fullPhrase": "Slėpkis po lapais!"
  },
  {
    "fullPhrase": "Slėpkis krūmuose!"
  },
  {
    "fullPhrase": "Slėpkis sliekų pavėsy!"
  },
  {
    "fullPhrase": "Tau ne visi namie!"
  },
  {
    "fullPhrase": "Apsivemk aukštielninkas!"
  },
  {
    "fullPhrase": "Tinginio pantis!"
  },
  {
    "fullPhrase": "Tu, slunkių slunkis!"
  },
  {
    "fullPhrase": "Tu, kiaulės uodega!"
  },
  {
    "fullPhrase": "Tu, varlės kinka!"
  },
  {
    "fullPhrase": "Nepūsk čia arabų!"
  },
  {
    "fullPhrase": "Nepūsk čia muilo burbulų!"
  },
  {
    "fullPhrase": "Nemuilink čia man akių!"
  },
  {
    "fullPhrase": "Nesigirk čia per daug, kad užpakalis neišgirstų ir kojų nepakirstų!"
  },
  {
    "fullPhrase": "Nepudrink man smegenų!"
  },
  {
    "fullPhrase": "Nesapnuok stovėdamas!"
  },
  {
    "fullPhrase": "Varyk arklius!"
  },
  {
    "fullPhrase": "Reikalingas tu man, kaip šuniui penkta koja!"
  },
  {
    "fullPhrase": "Ko prikibai kaip lapas prie užpakalio!"
  },
  {
    "fullPhrase": "Kad tau balandis ant galvos!…"
  },
  {
    "fullPhrase": "Tu kvailas per visą pilvą!"
  }
]
